<?xml version="1.0" encoding="utf-8"?>
<!-- Generator: Adobe Illustrator 19.0.0, SVG Export Plug-In . SVG Version: 6.00 Build 0)  -->
<svg version="1.1" id="Layer_1" xmlns="http://www.w3.org/2000/svg" xmlns:xlink="http://www.w3.org/1999/xlink" x="0px" y="0px"
	 width="523.9px" height="121.1px" viewBox="0 0 523.9 121.1" enable-background="new 0 0 523.9 121.1" xml:space="preserve">
<g>
	<g>
		<path fill="#487BAC" d="M235.6,16.4l0.9-4.1c0,0-11.1-1.3-13.4,13.2l3.6,0C226.7,25.4,226.9,16.7,235.6,16.4z"/>
	</g>
	<g>
		<g>
			<g>
				<path fill="#DE738D" d="M198.1,45c4.2,0.1,7.7,3.8,7.6,8c-0.1,4.3-3.8,7.7-8,7.6c-4.2-0.1-7.7-3.7-7.6-8
					C190.3,48.4,193.9,44.9,198.1,45z"/>
				<path fill="#487BAC" d="M197.9,61.9c-5,0-9.1-4.1-9.1-9.1c0-4.9,4.1-9.1,9.1-9.1c4.9,0,9.1,4.2,9.1,9.1
					C207,57.8,202.9,61.9,197.9,61.9z M197.9,46.3c-3.5,0-6.5,3-6.5,6.5c0,3.5,3,6.5,6.5,6.5c3.5,0,6.5-3,6.5-6.5
					C204.4,49.3,201.4,46.3,197.9,46.3z"/>
			</g>
		</g>
	</g>
	<g>
		<g>
			<g>
				<path fill="#DE738D" d="M323.5,100.8c3,0,5.6,2.6,5.6,5.6c0,3.1-2.6,5.6-5.6,5.6c-3,0-5.6-2.5-5.6-5.6
					C318,103.3,320.5,100.8,323.5,100.8z"/>
				<path fill="#DE738D" d="M323.5,112.8c-3.6,0-6.5-2.9-6.5-6.5c0-3.5,3-6.5,6.5-6.5c3.5,0,6.5,3,6.5,6.5
					C330,109.9,327.1,112.8,323.5,112.8z M323.5,101.7c-2.5,0-4.6,2.1-4.6,4.6c0,2.5,2.1,4.6,4.6,4.6c2.5,0,4.6-2.1,4.6-4.6
					C328.2,103.8,326.1,101.7,323.5,101.7z"/>
			</g>
		</g>
	</g>
	<g>
		<g>
			<g>
				<path fill="#DE738D" d="M435.8,100.8c3,0,5.6,2.6,5.6,5.6c0,3.1-2.6,5.6-5.6,5.6c-3,0-5.6-2.5-5.6-5.6
					C430.2,103.3,432.8,100.8,435.8,100.8z"/>
				<path fill="#DE738D" d="M435.8,112.8c-3.6,0-6.5-2.9-6.5-6.5c0-3.5,3-6.5,6.5-6.5c3.5,0,6.5,3,6.5,6.5
					C442.2,109.9,439.3,112.8,435.8,112.8z M435.8,101.7c-2.5,0-4.6,2.1-4.6,4.6c0,2.5,2.1,4.6,4.6,4.6c2.5,0,4.6-2.1,4.6-4.6
					C440.4,103.8,438.3,101.7,435.8,101.7z"/>
			</g>
		</g>
	</g>
	<g>
		<path fill="#DE738D" d="M183.7,53c0,0-13.7-6.1-13.7-26.2c0,0,1.5-26.8,29-26.8v25.4h27.7c0,0,3.4,17-14,27.7
			c0,0-1.2-13.7-14.5-13.7C198.2,39.5,185.3,38.9,183.7,53z"/>
	</g>
	<g>
		<g>
			<path fill="#487BAC" d="M0,54.1c0-6.4,2.7-10.4,9-10.4c4.8,0,8.7,3.3,8.7,10.4v12.9c3.4-1.4,6.6-2,10.5-2
				c15.3,0,27.9,12.6,27.9,28s-12.6,27.9-27.9,27.9c-4.9,0-9.3-1.2-13-2.9c-1.6,1.6-3.7,2.6-6.3,2.6c-5.3-0.1-8.9-4.1-8.9-10.3V54.1
				z M28.3,82.7c-6,0-10.4,4.5-10.4,10.4c0,6,4.5,10.4,10.4,10.4c5.8,0,10.3-4.5,10.3-10.4C38.6,87.2,34,82.7,28.3,82.7z"/>
			<path fill="#487BAC" d="M90.2,65c4.7,0,9,1.1,12.9,3c1.6-1.9,3.8-2.7,6.4-2.7h0.9c6,0.5,7.9,5.5,7.9,10.4v34.7
				c0,5.1-2.5,10.3-8.2,10.3h-0.7c-2.5,0-4.8-0.9-6.4-2.6c-3.8,2-8.4,2.9-12.9,2.9c-15.3,0-27.9-12.6-27.9-28S74.9,65,90.2,65z
				 M90.2,103.6c6,0,10.4-4.6,10.4-10.5c0-6-4.5-10.5-10.4-10.5c-5.8,0-10.3,4.6-10.3,10.5C79.9,99,84.4,103.6,90.2,103.6z"/>
			<path fill="#487BAC" d="M126.6,54.1c0-6.4,2.7-10.4,9-10.4c4.8,0,8.7,3.3,8.7,10.4v12.9c3.4-1.4,6.6-2,10.5-2
				c15.3,0,27.9,12.6,27.9,28s-12.6,27.9-27.9,27.9c-4.9,0-9.3-1.2-13-2.9c-1.6,1.6-3.7,2.6-6.3,2.6c-5.3-0.1-8.9-4.1-8.9-10.3V54.1
				z M154.9,82.7c-6,0-10.4,4.5-10.4,10.4c0,6,4.5,10.4,10.4,10.4c5.8,0,10.3-4.5,10.3-10.4C165.2,87.2,160.7,82.7,154.9,82.7z"/>
			<path fill="#487BAC" d="M189.3,76.3c0-7.2,3.9-10.4,8.9-10.4c4.9,0,8.8,3.3,8.8,10.4v34c0,7.2-3.9,10.3-8.8,10.3
				c-5,0-8.9-3.2-8.9-10.3V76.3z"/>
			<path fill="#487BAC" d="M257.8,102c4.3,0,6.7,2.5,6.7,6.5c0,2.6-1.1,4.9-2.9,6.6c-5.4,5.1-12.1,6-18.9,6c-15.5,0-28-12.6-28-28.3
				c0-15.4,12.5-27.8,28-27.8c14.5,0,26,10.8,27.4,24.8v0.9c0,4.8-4,8.5-8.8,8.5h-27.8c0,2.2,4.1,6.3,10,6.3
				C252.3,105.4,251.9,102,257.8,102z M252.1,87.2c0-2.3-3.7-5.5-9.6-5.5c-5.9,0-9.3,4.3-9.3,5.5H252.1z"/>
			<path fill="#487BAC" d="M283.4,100.2c4.3,0,6.2,5.1,9.5,5.1c1.3,0,1.8-0.7,1.8-1.4c0-3.3-3.8-3.5-5.7-4.5l-0.5-0.3
				c-4.2-2.3-11.8-6.3-11.8-17c0-10.3,6.7-17.2,17.1-17.2c8.2,0,16.4,6.1,16.4,12.5c0,4.9-2.1,8.3-7,8.3c-3,0-4.8-1.2-6.5-3.6
				c-0.2-0.4-1.2-1.8-2.3-1.8c-2,0-2.1,1-2.1,2.3c0,1.1,4.5,3.5,5.2,3.8l0.4,0.2c5.1,2.9,12.1,7.1,12.1,17.6
				c0,9.4-7.4,16.9-16.5,16.9c-9,0-17.4-3.8-17.4-12.8C276.1,103.5,278.2,100.2,283.4,100.2z"/>
		</g>
	</g>
	<g>
		<g>
			<path fill="#DE738D" d="M377.5,87c0.5,0.9,1.1,2.2,1.1,4.1c0,3.7-2.7,6-6.3,6c-0.3,0-0.8,0-1.1-0.1c-2.3-0.3-3.6-1.5-5-2.8
				c-1.6-1.5-3.4-3-6.9-3c-4.5,0-8.1,3.6-8.1,8.1c0,4.6,3.6,8.3,8.1,8.3c3.1,0,5.3-1.6,7.4-4.6c0.9-1.3,2.5-3.1,5.7-3.1
				c0.4,0,1,0,1.6,0.1c3.8,0.7,5.5,3.3,5.5,6.6c0,0.9-0.2,1.9-0.5,2.7c-3.8,7.3-11.1,12.3-19.8,12.3c-12.4,0-22.3-9.9-22.3-22.3
				c0-12.3,9.9-22.2,22.3-22.2C366.7,77.3,373.8,81.7,377.5,87z"/>
			<path fill="#DE738D" d="M402.7,77.3c12.2,0,22.2,9.9,22.2,22.2c0,12.4-9.9,22.3-22.2,22.3c-12.3,0-22.3-9.9-22.3-22.3
				C380.4,87.2,390.3,77.3,402.7,77.3z M402.7,107.7c4.5,0,8.1-3.6,8.1-8.2c0-4.5-3.6-8.1-8.1-8.1c-4.6,0-8.1,3.6-8.1,8.1
				C394.5,104,398.1,107.7,402.7,107.7z"/>
			<path fill="#DE738D" d="M448.8,85.1c0-5.4,3.2-7.9,7.2-7.9c1.8,0,3.2,0.5,4.5,1.7c2.4-1.3,5.2-1.7,7.8-1.7
				c12.3,0,19.4,7,19.4,19.2v16.7c0,5.7-3.1,8.2-6.9,8.2c-4.1,0-7.2-2.5-7.2-8.2V96.7c0-3-2.4-5.4-5.3-5.4c-2.8,0-5.2,2.2-5.3,4.9
				v16.9c0,5.4-3.2,8.3-6.9,8.3c-4.1,0-7-2.2-7.2-8.2V85.1z"/>
			<path fill="#DE738D" d="M497.2,91.9c-3.8,0-6.8-2.8-6.8-6.9c0-3.9,3-7,6.8-7h16c4.5,0,8.3,3.6,8.3,8c0,1.4-0.8,3.3-4.6,8.8
				l-8.7,12.3h6.3c4,0,7,3,7,7c0,3.8-3,7-7,7h-16c-4.4,0-8.1-3.6-8.1-8c0-1.5,0.5-3.3,1.3-4.5L505.8,92L497.2,91.9z"/>
		</g>
	</g>
	<g>
		<g>
			<path fill="#487BAC" d="M239.6,26l-0.3,1.5h-2.7l-1.1,6c-0.3,1.4-0.2,2.5,1.5,2.5c0.3,0,0.7,0,1-0.1l-0.2,1.4
				c-0.6,0.1-1.1,0.3-1.7,0.3c-2.7,0-3-2.1-2.8-3.2l1.2-6.8h-1.4l0.3-1.5h1.4l0.4-2.1l2.1-0.2l-0.4,2.3H239.6z"/>
			<path fill="#487BAC" d="M242.8,20.9h2l-0.9,5.1l-0.5,2.1h0.1c1.2-1.4,2.8-2.4,4.5-2.4c2,0,2.9,1.6,2.6,3.2l-1.5,8.3h-2l1.4-8
				c0.2-1.1-0.3-1.7-1.3-1.7c-1.6,0-3,1.2-4,2.4l-1.3,7.3h-2L242.8,20.9z"/>
			<path fill="#487BAC" d="M254.6,32c-0.4,2.4,0.6,4,3.1,4c1.1,0,2.2-0.3,3.3-0.7l-0.3,1.6c-1.2,0.4-2.4,0.6-3.9,0.6
				c-4.6,0-4.7-4-4.3-5.9c0.5-2.9,2.7-5.9,5.9-5.9c3.5,0,3.8,3.3,3.2,6.2H254.6z M259.6,30.6c0.3-1.5,0.2-3.3-1.7-3.3
				c-1.7,0-2.7,1.8-3.1,3.3H259.6z"/>
			<path fill="#487BAC" d="M269.4,35c0.9,0.5,2.1,1,3.3,1c1,0,2.2-0.5,2.4-1.7c0.4-2.4-5.2-1.7-4.5-5.4c0.4-2.1,2.1-3.1,4.4-3.1
				c0.9,0,1.6,0.1,2.7,0.3l-0.3,1.7c-0.8-0.3-1.7-0.5-2.7-0.5c-0.9,0-2.1,0.4-2.3,1.4c-0.4,2.1,5.3,1.7,4.6,5.4
				c-0.4,2.4-2.7,3.4-4.8,3.4c-1.1,0-2.3-0.3-3.2-0.6L269.4,35z"/>
			<path fill="#487BAC" d="M282.9,28.1h0.1c1-1.5,2.5-2.4,4.2-2.4c3.2,0,3.9,2.8,3.4,5.6c-0.5,2.9-2.5,6.2-5.8,6.2
				c-1.4,0-2.4-0.4-3.1-1.5h-0.1l-0.1,1.5l-0.7,3.8h-2l2.7-15.4h2L282.9,28.1z M281.9,34.6c0.8,0.9,1.5,1.4,2.8,1.4
				c2.3,0,3.4-2.5,3.7-4.4c0.3-1.7,0.3-4-1.9-4c-1.3,0-2.7,0.9-3.7,1.9L281.9,34.6z"/>
			<path fill="#487BAC" d="M294.2,32c-0.4,2.4,0.6,4,3.1,4c1.1,0,2.2-0.3,3.3-0.7l-0.3,1.6c-1.2,0.4-2.5,0.6-3.9,0.6
				c-4.6,0-4.7-4-4.3-5.9c0.5-2.9,2.7-5.9,5.9-5.9c3.5,0,3.8,3.3,3.2,6.2H294.2z M299.3,30.6c0.3-1.5,0.2-3.3-1.7-3.3
				c-1.7,0-2.7,1.8-3.1,3.3H299.3z"/>
			<path fill="#487BAC" d="M312.5,27.8c-0.9-0.3-1.9-0.6-2.9-0.6c-2.4,0-3.8,2.2-4.2,4.4c-0.4,2.3,0.3,4.3,2.8,4.3
				c1,0,2.1-0.2,3.1-0.7l-0.3,1.6c-1.1,0.3-2.3,0.6-3.4,0.6c-4.6,0-4.7-4-4.3-5.9c0.4-2.5,2.2-5.9,6.4-5.9c1.1,0,2.1,0.1,3.1,0.4
				L312.5,27.8z"/>
			<path fill="#487BAC" d="M315.3,26h2l-2,11.3h-2L315.3,26z M316,21.9h2l-0.4,2h-2L316,21.9z"/>
			<path fill="#487BAC" d="M327.8,37.2c-0.5,0.2-1.1,0.3-1.6,0.3c-1,0-1.6-0.7-1.6-1.7c-1,0.9-2.4,1.7-3.8,1.7
				c-1.8,0-3.1-1.2-2.7-3.1c0.4-2,2.4-3.8,6.4-3.8h0.8l0.1-0.8c0.3-1.6,0.2-2.5-1.6-2.5c-1.1,0-2.5,0.5-3.6,1l0.3-1.7
				c1.3-0.5,2.7-0.9,4.1-0.9c2.4,0,3.4,1.1,3,3.3l-0.9,5c-0.1,0.8-0.4,2,0.7,2h0.4L327.8,37.2z M325.1,31.8h-1
				c-1.2,0-3.6,0.5-3.9,2.3c-0.2,1,0.5,1.7,1.5,1.7c1,0,2-0.5,2.8-1.1L325.1,31.8z"/>
			<path fill="#487BAC" d="M332.6,20.9h2l-2.9,16.4h-2L332.6,20.9z"/>
			<path fill="#487BAC" d="M337,26h2l-2,11.3h-2L337,26z M337.8,21.9h2l-0.4,2h-2L337.8,21.9z"/>
			<path fill="#487BAC" d="M340.4,35c0.9,0.5,2.1,1,3.3,1c1,0,2.2-0.5,2.4-1.7c0.4-2.4-5.2-1.7-4.5-5.4c0.4-2.1,2.1-3.1,4.4-3.1
				c0.9,0,1.6,0.1,2.7,0.3l-0.3,1.7c-0.8-0.3-1.7-0.5-2.7-0.5c-0.9,0-2.1,0.4-2.3,1.4c-0.4,2.1,5.3,1.7,4.6,5.4
				c-0.4,2.4-2.7,3.4-4.8,3.4c-1.1,0-2.3-0.3-3.2-0.6L340.4,35z"/>
			<path fill="#487BAC" d="M357.3,26l-0.3,1.5h-2.7l-1.1,6c-0.3,1.4-0.2,2.5,1.5,2.5c0.3,0,0.7,0,1-0.1l-0.2,1.4
				c-0.6,0.1-1.1,0.3-1.7,0.3c-2.7,0-3-2.1-2.8-3.2l1.2-6.8h-1.4l0.3-1.5h1.4l0.4-2.1l2.1-0.2l-0.4,2.3H357.3z"/>
			<path fill="#487BAC" d="M365.6,26h2l-2,11.3h-2L365.6,26z M366.3,21.9h2l-0.4,2h-2L366.3,21.9z"/>
			<path fill="#487BAC" d="M372.5,28.1h0.1c1.2-1.4,2.8-2.4,4.5-2.4c2,0,2.9,1.6,2.6,3.2l-1.5,8.3h-2l1.4-8c0.2-1.1-0.3-1.7-1.3-1.7
				c-1.6,0-3,1.2-4,2.4l-1.3,7.3h-2l2-11.3h2L372.5,28.1z"/>
			<path fill="#487BAC" d="M390,20.9h2l-0.9,5.1l-0.5,2.1h0.1c1-1.5,2.5-2.4,4.2-2.4c3.2,0,3.9,2.8,3.4,5.6
				c-0.5,2.9-2.5,6.2-5.8,6.2c-1.4,0-2.4-0.4-3.1-1.5h-0.1l-0.5,1.4h-1.7L390,20.9z M389.6,34.6c0.8,0.9,1.5,1.4,2.8,1.4
				c2.3,0,3.4-2.5,3.7-4.4c0.3-1.7,0.3-4-1.9-4c-1.3,0-2.7,0.9-3.7,1.9L389.6,34.6z"/>
			<path fill="#487BAC" d="M409,37.2c-0.5,0.2-1.1,0.3-1.6,0.3c-1,0-1.6-0.7-1.6-1.7c-1,0.9-2.4,1.7-3.8,1.7c-1.8,0-3.1-1.2-2.7-3.1
				c0.4-2,2.4-3.8,6.4-3.8h0.8l0.1-0.8c0.3-1.6,0.2-2.5-1.6-2.5c-1.1,0-2.5,0.5-3.6,1l0.3-1.7c1.3-0.5,2.7-0.9,4.1-0.9
				c2.4,0,3.4,1.1,3,3.3l-0.9,5c-0.1,0.8-0.4,2,0.7,2h0.4L409,37.2z M406.3,31.8h-1c-1.2,0-3.6,0.5-3.9,2.3c-0.2,1,0.5,1.7,1.5,1.7
				c1,0,2-0.5,2.8-1.1L406.3,31.8z"/>
			<path fill="#487BAC" d="M413.6,20.9h2l-0.9,5.1l-0.5,2.1h0.1c1-1.5,2.5-2.4,4.2-2.4c3.2,0,3.9,2.8,3.4,5.6
				c-0.5,2.9-2.5,6.2-5.8,6.2c-1.4,0-2.4-0.4-3.1-1.5h-0.1l-0.5,1.4h-1.7L413.6,20.9z M413.2,34.6c0.8,0.9,1.5,1.4,2.8,1.4
				c2.3,0,3.4-2.5,3.7-4.4c0.3-1.7,0.3-4-1.9-4c-1.3,0-2.7,0.9-3.7,1.9L413.2,34.6z"/>
			<path fill="#487BAC" d="M426.3,37.3L423.8,26h2.2l1.9,8.7l5.6-8.7h1.8l-9.8,15.4h-2L426.3,37.3z"/>
			<path fill="#487BAC" d="M444.3,28.1h0.1c1-1.5,2.5-2.4,4.2-2.4c3.2,0,3.9,2.8,3.4,5.6c-0.5,2.9-2.5,6.2-5.8,6.2
				c-1.4,0-2.4-0.4-3.1-1.5h-0.1l-0.1,1.5l-0.7,3.8h-2l2.7-15.4h2L444.3,28.1z M443.3,34.6c0.8,0.9,1.5,1.4,2.8,1.4
				c2.3,0,3.4-2.5,3.7-4.4c0.3-1.7,0.3-4-1.9-4c-1.3,0-2.7,0.9-3.7,1.9L443.3,34.6z"/>
			<path fill="#487BAC" d="M456.9,28.1h0.1c0.9-1.4,2.4-2.4,4-2.4h0.6l-0.3,2c-0.3-0.1-0.6-0.2-0.9-0.2c-1.5,0-2.8,1.1-3.7,2.3
				l-1.3,7.4h-2l2-11.3h2L456.9,28.1z"/>
			<path fill="#487BAC" d="M461,31.6c0.4-2.5,2.2-5.9,6.4-5.9c4.2,0,4.8,3.4,4.3,5.9c-0.3,1.8-1.8,5.9-6.4,5.9
				C460.7,37.5,460.7,33.5,461,31.6z M469.6,31.6c0.4-2.1,0-4.4-2.4-4.4c-2.5,0-3.6,2.3-4,4.4c-0.4,2.1,0,4.4,2.4,4.4
				C468.1,36,469.2,33.7,469.6,31.6z"/>
			<path fill="#487BAC" d="M480.9,35.2h-0.1c-1,1.5-2.5,2.4-4.2,2.4c-3.2,0-3.9-2.8-3.4-5.6c0.5-2.9,2.5-6.2,5.8-6.2
				c1.4,0,2.4,0.4,3.1,1.5h0.1l0.1-1.5l0.9-4.9h2l-2.9,16.4h-2L480.9,35.2z M481.9,28.7c-0.8-0.9-1.5-1.4-2.8-1.4
				c-2.3,0-3.4,2.5-3.7,4.4c-0.3,1.7-0.3,4,1.9,4c1.3,0,2.7-0.9,3.7-1.9L481.9,28.7z"/>
			<path fill="#487BAC" d="M492.9,37.3L492.9,37.3l0.5-2.1h-0.1c-1.2,1.4-2.8,2.4-4.5,2.4c-2,0-2.9-1.6-2.6-3.2l1.5-8.3h2l-1.4,8
				c-0.2,1.1,0.3,1.7,1.3,1.7c1.6,0,3-1.2,4-2.4l1.3-7.3h2l-2,11.3H492.9z"/>
			<path fill="#487BAC" d="M507.6,27.8c-0.9-0.3-1.9-0.6-2.9-0.6c-2.4,0-3.8,2.2-4.2,4.4c-0.4,2.3,0.3,4.3,2.8,4.3
				c1,0,2.1-0.2,3.1-0.7l-0.3,1.6c-1.1,0.3-2.3,0.6-3.4,0.6c-4.6,0-4.7-4-4.3-5.9c0.4-2.5,2.2-5.9,6.4-5.9c1.1,0,2.1,0.1,3.1,0.4
				L507.6,27.8z"/>
			<path fill="#487BAC" d="M515.2,26l-0.3,1.5h-2.7l-1.1,6C511,35,511,36,512.7,36c0.3,0,0.7,0,1-0.1l-0.2,1.4
				c-0.6,0.1-1.1,0.3-1.7,0.3c-2.7,0-3-2.1-2.8-3.2l1.2-6.8h-1.4l0.3-1.5h1.4l0.4-2.1l2.1-0.2l-0.4,2.3H515.2z"/>
			<path fill="#487BAC" d="M515.6,35c0.9,0.5,2.1,1,3.3,1c1,0,2.2-0.5,2.4-1.7c0.4-2.4-5.2-1.7-4.5-5.4c0.4-2.1,2.1-3.1,4.4-3.1
				c0.9,0,1.6,0.1,2.7,0.3l-0.3,1.7c-0.8-0.3-1.7-0.5-2.7-0.5c-0.9,0-2.1,0.4-2.2,1.4c-0.4,2.1,5.3,1.7,4.6,5.4
				c-0.4,2.4-2.7,3.4-4.8,3.4c-1.1,0-2.3-0.3-3.2-0.6L515.6,35z"/>
		</g>
	</g>
	<g>
		<g>
			<path fill="#DE738D" d="M488.3,43.2h3.4l-0.1,0.8h-2.1l-0.2,1.2h1.7l-0.1,0.7h-1.7l-0.2,1.4h2.2l-0.1,0.8h-3.6L488.3,43.2z"/>
			<path fill="#DE738D" d="M491.8,47.2c0.4,0.2,0.8,0.3,1.3,0.3c0.4,0,0.8-0.1,0.9-0.5c0.1-0.8-2.1-0.9-1.8-2.5c0.2-1,1.1-1.4,2-1.4
				c0.5,0,1,0.1,1.5,0.2l-0.2,0.9c-0.4-0.1-0.8-0.3-1.2-0.3c-0.3,0-0.7,0.1-0.7,0.4c-0.1,0.8,2.2,0.8,1.9,2.5
				c-0.1,0.5-0.5,1.5-2.3,1.5c-0.6,0-1.2-0.1-1.5-0.1L491.8,47.2z"/>
			<path fill="#DE738D" d="M497.9,44.1h-1.8l0.1-0.8h4.9l-0.1,0.8h-1.8l-0.7,4.2h-1.3L497.9,44.1z"/>
			<path fill="#DE738D" d="M505.1,44h-0.7l0.1-0.7l2-0.2l-0.9,5.1h-1.3L505.1,44z"/>
			<path fill="#DE738D" d="M510.8,45.9c-0.3,0.4-0.8,0.5-1.2,0.5c-0.9,0-1.5-0.7-1.3-1.6c0.1-0.6,0.8-1.8,2.3-1.8c1.4,0,2,1,1.7,2.5
				c-0.2,1.4-1.2,2.7-2.9,2.7c-0.5,0-1-0.1-1.4-0.2l0.2-0.9c0.4,0.2,0.8,0.3,1.2,0.3C510.3,47.6,510.8,46.4,510.8,45.9L510.8,45.9z
				 M509.6,44.7c-0.1,0.4,0,1,0.5,1c0.5,0,0.8-0.5,0.9-0.9c0.1-0.4,0-0.9-0.5-0.9C509.9,43.8,509.6,44.3,509.6,44.7z"/>
			<path fill="#DE738D" d="M515.4,45.9c-0.3,0.4-0.8,0.5-1.2,0.5c-0.9,0-1.5-0.7-1.3-1.6c0.1-0.6,0.8-1.8,2.3-1.8c1.4,0,2,1,1.7,2.5
				c-0.2,1.4-1.2,2.7-2.9,2.7c-0.5,0-1-0.1-1.4-0.2l0.2-0.9c0.4,0.2,0.8,0.3,1.2,0.3C515,47.6,515.4,46.4,515.4,45.9L515.4,45.9z
				 M514.2,44.7c-0.1,0.4,0,1,0.5,1c0.5,0,0.8-0.5,0.9-0.9c0.1-0.4,0-0.9-0.5-0.9C514.6,43.8,514.3,44.3,514.2,44.7z"/>
			<path fill="#DE738D" d="M518.4,45.6c-0.4-0.2-0.6-0.7-0.5-1.2c0.1-0.5,0.6-1.3,2-1.3c1,0,1.6,0.4,1.5,1.2c-0.1,0.5-0.5,0.9-1,1.2
				c0.5,0.3,0.9,0.7,0.8,1.4c-0.1,0.5-0.7,1.5-2.3,1.5c-1,0-1.9-0.4-1.7-1.3C517.3,46.4,517.9,45.8,518.4,45.6z M518.4,46.8
				c-0.1,0.5,0.3,0.8,0.8,0.8c0.3,0,0.8-0.2,0.8-0.6c0.1-0.4-0.6-0.8-1.1-1.1C518.7,46.2,518.5,46.4,518.4,46.8z M520.3,44.5
				c0.1-0.4-0.1-0.6-0.5-0.6c-0.3,0-0.6,0.1-0.7,0.5c-0.1,0.4,0.5,0.6,0.8,0.8C520.1,44.9,520.2,44.7,520.3,44.5z"/>
		</g>
	</g>
</g>
<rect x="311.9" y="60.6" fill="none" width="36" height="21.3"/>
<text transform="matrix(1 0 0 1 311.9482 69.1605)" fill="#487BAC" font-family="'Arial-BoldMT'" font-size="12px">TM</text>
</svg>
