<?xml version="1.0" encoding="utf-8"?>
<!-- Generator: Adobe Illustrator 19.0.0, SVG Export Plug-In . SVG Version: 6.00 Build 0)  -->
<svg version="1.1" id="Layer_1" xmlns="http://www.w3.org/2000/svg" xmlns:xlink="http://www.w3.org/1999/xlink" x="0px" y="0px"
	 width="310.1px" height="121.1px" viewBox="0 0 310.1 121.1" enable-background="new 0 0 310.1 121.1" xml:space="preserve">
<g>
	<g>
		<path fill="#233974" d="M235.6,16.4l0.9-4.1c0,0-11.1-1.3-13.4,13.2l3.6,0C226.7,25.4,226.9,16.7,235.6,16.4z"/>
	</g>
	<g>
		<g>
			<g>
				<path fill="#DE738D" d="M198.1,45c4.2,0.1,7.7,3.8,7.6,8c-0.1,4.3-3.8,7.7-8,7.6c-4.2-0.1-7.7-3.7-7.6-8
					C190.3,48.4,193.9,44.9,198.1,45z"/>
				<path fill="#233974" d="M197.9,61.9c-5,0-9.1-4.1-9.1-9.1c0-4.9,4.1-9.1,9.1-9.1c4.9,0,9.1,4.2,9.1,9.1
					C207,57.8,202.9,61.9,197.9,61.9z M197.9,46.3c-3.5,0-6.5,3-6.5,6.5c0,3.5,3,6.5,6.5,6.5c3.5,0,6.5-3,6.5-6.5
					C204.4,49.3,201.4,46.3,197.9,46.3z"/>
			</g>
		</g>
	</g>
	<g>
		<path fill="#DE738D" d="M183.7,53c0,0-13.7-6.1-13.7-26.2c0,0,1.5-26.8,29-26.8v25.4h27.7c0,0,3.4,17-14,27.7
			c0,0-1.2-13.7-14.5-13.7C198.2,39.5,185.3,38.9,183.7,53z"/>
	</g>
	<g>
		<g>
			<path fill="#233974" d="M0,54.1c0-6.4,2.7-10.4,9-10.4c4.8,0,8.7,3.3,8.7,10.4v12.9c3.4-1.4,6.6-2,10.5-2
				c15.3,0,27.9,12.6,27.9,28s-12.6,27.9-27.9,27.9c-4.9,0-9.3-1.2-13-2.9c-1.6,1.6-3.7,2.6-6.3,2.6c-5.3-0.1-8.9-4.1-8.9-10.3V54.1
				z M28.3,82.7c-6,0-10.4,4.5-10.4,10.4c0,6,4.5,10.4,10.4,10.4c5.8,0,10.3-4.5,10.3-10.4C38.6,87.2,34,82.7,28.3,82.7z"/>
			<path fill="#233974" d="M90.2,65c4.7,0,9,1.1,12.9,3c1.6-1.9,3.8-2.7,6.4-2.7h0.9c6,0.5,7.9,5.5,7.9,10.4v34.7
				c0,5.1-2.5,10.3-8.2,10.3h-0.7c-2.5,0-4.8-0.9-6.4-2.6c-3.8,2-8.4,2.9-12.9,2.9c-15.3,0-27.9-12.6-27.9-28S74.9,65,90.2,65z
				 M90.2,103.6c6,0,10.4-4.6,10.4-10.5c0-6-4.5-10.5-10.4-10.5c-5.8,0-10.3,4.6-10.3,10.5C79.9,99,84.4,103.6,90.2,103.6z"/>
			<path fill="#233974" d="M126.6,54.1c0-6.4,2.7-10.4,9-10.4c4.8,0,8.7,3.3,8.7,10.4v12.9c3.4-1.4,6.6-2,10.5-2
				c15.3,0,27.9,12.6,27.9,28s-12.6,27.9-27.9,27.9c-4.9,0-9.3-1.2-13-2.9c-1.6,1.6-3.7,2.6-6.3,2.6c-5.3-0.1-8.9-4.1-8.9-10.3V54.1
				z M154.9,82.7c-6,0-10.4,4.5-10.4,10.4c0,6,4.5,10.4,10.4,10.4c5.8,0,10.3-4.5,10.3-10.4C165.2,87.2,160.7,82.7,154.9,82.7z"/>
			<path fill="#233974" d="M189.3,76.3c0-7.2,3.9-10.4,8.9-10.4c4.9,0,8.8,3.3,8.8,10.4v34c0,7.2-3.9,10.3-8.8,10.3
				c-5,0-8.9-3.2-8.9-10.3V76.3z"/>
			<path fill="#233974" d="M257.8,102c4.3,0,6.7,2.5,6.7,6.5c0,2.6-1.1,4.9-2.9,6.6c-5.4,5.1-12.1,6-18.9,6c-15.5,0-28-12.6-28-28.3
				c0-15.4,12.5-27.8,28-27.8c14.5,0,26,10.8,27.4,24.8v0.9c0,4.8-4,8.5-8.8,8.5h-27.8c0,2.2,4.1,6.3,10,6.3
				C252.3,105.4,251.9,102,257.8,102z M252.1,87.2c0-2.3-3.7-5.5-9.6-5.5c-5.9,0-9.3,4.3-9.3,5.5H252.1z"/>
			<path fill="#233974" d="M283.4,100.2c4.3,0,6.2,5.1,9.5,5.1c1.3,0,1.8-0.7,1.8-1.4c0-3.3-3.8-3.5-5.7-4.5l-0.5-0.3
				c-4.2-2.3-11.8-6.3-11.8-17c0-10.3,6.7-17.2,17.1-17.2c8.2,0,16.4,6.1,16.4,12.5c0,4.9-2.1,8.3-7,8.3c-3,0-4.8-1.2-6.5-3.6
				c-0.2-0.4-1.2-1.8-2.3-1.8c-2,0-2.1,1-2.1,2.3c0,1.1,4.5,3.5,5.2,3.8l0.4,0.2c5.1,2.9,12.1,7.1,12.1,17.6
				c0,9.4-7.4,16.9-16.5,16.9c-9,0-17.4-3.8-17.4-12.8C276.1,103.5,278.2,100.2,283.4,100.2z"/>
		</g>
	</g>
</g>
</svg>
